<?xml version="1.0" encoding="utf-8"?>
<!-- Generator: Adobe Illustrator 18.0.0, SVG Export Plug-In . SVG Version: 6.00 Build 0)  -->
<!DOCTYPE svg PUBLIC "-//W3C//DTD SVG 1.1//EN" "http://www.w3.org/Graphics/SVG/1.1/DTD/svg11.dtd">
<svg version="1.1" id="Layer_1" xmlns="http://www.w3.org/2000/svg" xmlns:xlink="http://www.w3.org/1999/xlink" x="0px" y="0px"
	 viewBox="0 0 110 89" enable-background="new 0 0 110 89" xml:space="preserve">
<g>
	<polygon fill="#1075AA" points="62,53.1 62,88.3 55.9,88.3 55.9,64.7 55.8,64.7 41.3,88.3 33.9,88.3 56.5,53.1 	"/>
	<polygon fill="#808184" points="78.2,53.2 78.2,59.2 72,59.2 72,88.3 65.9,88.3 65.9,59.2 65.9,53.2 	"/>
	<path fill="#103F69" d="M103.5,88.3h-7.4L84.2,69.9h3.1h3.9c0.8,0,1.5-0.1,2.3-0.3c0.7-0.2,1.3-0.5,1.9-1c0.5-0.4,0.9-1,1.3-1.7
		c0.3-0.7,0.5-1.5,0.5-2.4c0-0.9-0.2-1.7-0.5-2.4c-0.3-0.7-0.8-1.2-1.3-1.7c-0.5-0.4-1.2-0.8-1.9-1c-0.7-0.2-1.4-0.3-2.2-0.3h-3.9
		h-6.1v-6.1h10.1c1.5,0,2.9,0.1,4.2,0.4c1.4,0.3,2.6,0.9,3.8,1.9c1.2,1,2.2,2.3,2.9,3.8c0.7,1.5,1,3.1,1,4.8c0,1.5-0.3,3-0.8,4.6
		c-0.5,1.5-1.3,2.8-2.4,3.9c-0.9,0.9-1.7,1.5-2.5,1.9c-0.8,0.4-1.8,0.7-2.9,1L103.5,88.3z"/>
	<path fill="#707070" d="M106.4,53.2c-1.7,0-3,1.4-3,3.2c0,1.8,1.4,3.2,3,3.2c1.7,0,3-1.4,3-3.2C109.4,54.7,108.1,53.2,106.4,53.2
		 M106.4,59.2c-1.4,0-2.5-1.2-2.5-2.7c0-1.5,1.1-2.7,2.5-2.7c1.4,0,2.5,1.2,2.5,2.7C108.9,58,107.8,59.2,106.4,59.2 M107.2,56.9
		c-0.1-0.1-0.2-0.2-0.3-0.3c0.3,0,0.5-0.1,0.6-0.3c0.1-0.2,0.2-0.4,0.2-0.6c0-0.2,0-0.4-0.1-0.5c-0.1-0.2-0.2-0.3-0.4-0.3
		c-0.2-0.1-0.4-0.1-0.7-0.1h-1.3v3.4h0.6v-1.4h0.1c0.1,0,0.3,0,0.3,0c0.1,0,0.1,0.1,0.2,0.1c0.1,0.1,0.2,0.2,0.3,0.5l0.5,0.7h0.8
		l-0.4-0.7C107.4,57.2,107.3,57,107.2,56.9 M106.3,56.1h-0.5v-0.9h0.5c0.3,0,0.4,0,0.5,0c0.1,0,0.2,0.1,0.2,0.1
		c0.1,0.1,0.1,0.2,0.1,0.3c0,0.1,0,0.2-0.1,0.3c0,0.1-0.1,0.1-0.2,0.1C106.8,56.1,106.6,56.1,106.3,56.1"/>
	<path fill="#1075AA" d="M4.6,38c-1,0-3,0.1-4,0.2v23.6c0.9-0.1,3-0.2,4-0.2c13.8,0,25.1,12,25.1,26.8V64.8C29.6,50,18.4,38,4.6,38"
		/>
	<path fill="#008BC9" d="M3.4,0.7c-1,0-1.9,0.1-2.9,0.2v23.6c0.9-0.1,1.9-0.2,2.9-0.2c13.8,0,25.1,12,25.1,26.8V27.4
		C28.5,12.7,17.3,0.7,3.4,0.7"/>
	<path fill="#103F69" d="M59,9.9c1,0,1.9,0.1,2.9,0.2v23.6c-0.9-0.1-1.9-0.2-2.9-0.2c-13.8,0-25.1,12-25.1,26.8V36.6
		C33.9,21.9,45.2,9.9,59,9.9"/>
</g>
</svg>
